{
  "name": "real-estate-e2e",
  "$schema": "../../node_modules/nx/schemas/project-schema.json",
  "sourceRoot": "apps/real-estate-e2e/src",
  "projectType": "application",
  "targets": {
    "e2e": {
      "executor": "@nrwl/cypress:cypress",
      "options": {
        "cypressConfig": "apps/real-estate-e2e/cypress.config.ts",
        "devServerTarget": "real-estate:serve:development",
        "testingType": "e2e"
      },
      "configurations": {
        "production": {
          "devServerTarget": "real-estate:serve:production"
        }
      }
    },
    "lint": {
      "executor": "@nrwl/linter:eslint",
      "outputs": ["{options.outputFile}"],
      "options": {
        "lintFilePatterns": ["apps/real-estate-e2e/**/*.{js,ts}"]
      }
    }
  },
  "tags": [],
  "implicitDependencies": ["real-estate"]
}
